{
  "compilerOptions": {
    "experimentalDecorators": true,
    "baseUrl": "./",
    "paths": {
      "@/*": ["src/*"],
      "components/*": ["src/components/*"],
      "assets/*": ["src/assets/*"],
      "views/*": ["src/views/*"]
    }
  },
  "exclude": ["node_modules", "dist"]
}
